{
  "users": [
    {
      "name": "venkat2",
      "mno": "9500127189",
      "sapId": "51859372",
      "email": "venkatesh,embadi@hcl.com",
      "gender": "female ",
      "id": 5
    },
    {
      "name": "dfdf",
      "mno": "12321424",
      "sapId": "123123",
      "email": "fdfs",
      "gender": "female ",
      "id": 7
    }
  ]
}